coursework_project/sim/ghdl/tb_system.vcd
$date
  Tue Apr 28 21:24:18 2026
$end
$version
  GHDL v0
$end
$timescale
  1 fs
$end
$scope module standard $end
$upscope $end
$scope module textio $end
$upscope $end
$scope module std_logic_1164 $end
$upscope $end
$scope module numeric_std $end
$upscope $end
$scope module microcomputer_pkg $end
$upscope $end
$scope module program_image_pkg $end
$upscope $end
$scope module data_image_pkg $end
$upscope $end
$scope module tb_system $end
$var reg 1 ! clk $end
$var reg 1 " rst $end
$var reg 1 # dma_start $end
$var reg 1 $ dma_valid $end
$var reg 16 % dma_data[15:0] $end
$var reg 1 & halt $end
$var reg 1 ' dma_done $end
$var reg 5 ( dbg_state[4:0] $end
$var reg 16 ) dbg_pc[15:0] $end
$var reg 16 * dbg_ir0[15:0] $end
$var reg 16 + dbg_ir1[15:0] $end
$var reg 16 , dbg_r1[15:0] $end
$var reg 16 - dbg_r2[15:0] $end
$var reg 16 . dbg_r3[15:0] $end
$var reg 16 / dbg_r4[15:0] $end
$var reg 16 0 dbg_r5[15:0] $end
$var reg 16 1 dbg_r6[15:0] $end
$var reg 16 2 dbg_r7[15:0] $end
$var reg 4 3 dbg_flags[3:0] $end
$var reg 3 4 dbg_sp[2:0] $end
$var reg 1 5 cache_hit $end
$var reg 1 6 cache_miss $end
$var reg 1 7 req_cpu $end
$var reg 1 8 req_dma $end
$var reg 1 9 gnt_cpu $end
$var reg 1 : gnt_dma $end
$var reg 1 ; ram_we $end
$var reg 16 < ram_addr[15:0] $end
$var reg 16 = ram_wdata[15:0] $end
$var reg 16 > ram_rdata[15:0] $end
$var reg 2 ? bp_hist[1:0] $end
$var reg 1 @ bp_pred $end
$var reg 16 A bp_target[15:0] $end
$scope module uut $end
$var reg 1 B clk_i $end
$var reg 1 C rst_i $end
$var reg 1 D dma_start_i $end
$var reg 1 E dma_valid_i $end
$var reg 16 F dma_data_i[15:0] $end
$var reg 1 G halt_o $end
$var reg 1 H dma_done_o $end
$var reg 5 I dbg_state_o[4:0] $end
$var reg 16 J dbg_pc_o[15:0] $end
$var reg 16 K dbg_ir0_o[15:0] $end
$var reg 16 L dbg_ir1_o[15:0] $end
$var reg 16 M dbg_r1_o[15:0] $end
$var reg 16 N dbg_r2_o[15:0] $end
$var reg 16 O dbg_r3_o[15:0] $end
$var reg 16 P dbg_r4_o[15:0] $end
$var reg 16 Q dbg_r5_o[15:0] $end
$var reg 16 R dbg_r6_o[15:0] $end
$var reg 16 S dbg_r7_o[15:0] $end
$var reg 4 T dbg_flags_o[3:0] $end
$var reg 3 U dbg_sp_o[2:0] $end
$var reg 1 V dbg_cache_hit_o $end
$var reg 1 W dbg_cache_miss_o $end
$var reg 1 X dbg_req_cpu_o $end
$var reg 1 Y dbg_req_dma_o $end
$var reg 1 Z dbg_gnt_cpu_o $end
$var reg 1 [ dbg_gnt_dma_o $end
$var reg 1 \ dbg_ram_we_o $end
$var reg 16 ] dbg_ram_addr_o[15:0] $end
$var reg 16 ^ dbg_ram_wdata_o[15:0] $end
$var reg 16 _ dbg_ram_rdata_o[15:0] $end
$var reg 2 ` dbg_bp_hist_o[1:0] $end
$var reg 1 a dbg_bp_pred_o $end
$var reg 16 b dbg_bp_target_o[15:0] $end
$var reg 16 c rom_addr[15:0] $end
$var reg 1 d rom_en $end
$var reg 16 e rom_data[15:0] $end
$var reg 1 f cache_req $end
$var reg 1 g cache_we $end
$var reg 16 h cache_addr[15:0] $end
$var reg 16 i cache_wdata[15:0] $end
$var reg 16 j cache_rdata[15:0] $end
$var reg 1 k cache_ready $end
$var reg 1 l cache_hit $end
$var reg 1 m cache_miss $end
$var reg 1 n cache_ram_req $end
$var reg 1 o cache_ram_we $end
$var reg 16 p cache_ram_addr[15:0] $end
$var reg 16 q cache_ram_wdata[15:0] $end
$var reg 1 r dma_req $end
$var reg 1 s dma_grant $end
$var reg 1 t cpu_grant $end
$var reg 1 u dma_done $end
$var reg 1 v dma_we $end
$var reg 16 w dma_addr[15:0] $end
$var reg 16 x dma_wdata[15:0] $end
$var reg 1 y ram_en $end
$var reg 1 z ram_we $end
$var reg 16 { ram_addr[15:0] $end
$var reg 16 | ram_wdata[15:0] $end
$var reg 16 } ram_rdata[15:0] $end
$var reg 1 !" bp_query $end
$var reg 16 "" bp_pc_query[15:0] $end
$var reg 2 #" bp_hist[1:0] $end
$var reg 1 $" bp_pred $end
$var reg 16 %" bp_target[15:0] $end
$var reg 1 &" bp_update $end
$var reg 16 '" bp_pc_update[15:0] $end
$var reg 2 (" bp_hist_upd[1:0] $end
$var reg 1 )" bp_taken $end
$var reg 16 *" bp_tgt_upd[15:0] $end
$scope module u_cpu $end
$var reg 1 +" clk_i $end
$var reg 1 ," rst_i $end
$var reg 16 -" rom_addr_o[15:0] $end
$var reg 1 ." rom_en_o $end
$var reg 16 /" rom_data_i[15:0] $end
$var reg 1 0" cache_req_o $end
$var reg 1 1" cache_we_o $end
$var reg 16 2" cache_addr_o[15:0] $end
$var reg 16 3" cache_wdata_o[15:0] $end
$var reg 16 4" cache_rdata_i[15:0] $end
$var reg 1 5" cache_ready_i $end
$var reg 1 6" cache_hit_i $end
$var reg 1 7" cache_miss_i $end
$var reg 1 8" bp_query_o $end
$var reg 16 9" bp_pc_query_o[15:0] $end
$var reg 2 :" bp_hist_i[1:0] $end
$var reg 1 ;" bp_pred_i $end
$var reg 16 <" bp_target_i[15:0] $end
$var reg 1 =" bp_update_o $end
$var reg 16 >" bp_pc_update_o[15:0] $end
$var reg 2 ?" bp_hist_o[1:0] $end
$var reg 1 @" bp_taken_o $end
$var reg 16 A" bp_target_o[15:0] $end
$var reg 1 B" halt_o $end
$var reg 5 C" dbg_state_o[4:0] $end
$var reg 16 D" dbg_pc_o[15:0] $end
$var reg 16 E" dbg_ir0_o[15:0] $end
$var reg 16 F" dbg_ir1_o[15:0] $end
$var reg 16 G" dbg_r1_o[15:0] $end
$var reg 16 H" dbg_r2_o[15:0] $end
$var reg 16 I" dbg_r3_o[15:0] $end
$var reg 16 J" dbg_r4_o[15:0] $end
$var reg 16 K" dbg_r5_o[15:0] $end
$var reg 16 L" dbg_r6_o[15:0] $end
$var reg 16 M" dbg_r7_o[15:0] $end
$var reg 4 N" dbg_flags_o[3:0] $end
$var reg 3 O" dbg_sp_o[2:0] $end
$comment state_r is not handled $end
$var reg 16 P" pc_r[15:0] $end
$var reg 16 Q" ir0_r[15:0] $end
$var reg 16 R" ir1_r[15:0] $end
$var reg 4 S" cur_reg_r[3:0] $end
$var reg 8 T" cur_opcode_r[7:0] $end
$var reg 16 U" rom_addr_r[15:0] $end
$var reg 1 V" rom_en_r $end
$var reg 1 W" rf_we $end
$var reg 4 X" rf_wr_addr[3:0] $end
$var reg 4 Y" rf_rd_a[3:0] $end
$var reg 4 Z" rf_rd_b[3:0] $end
$var reg 16 [" rf_din[15:0] $end
$var reg 16 \" rf_a[15:0] $end
$var reg 16 ]" rf_b[15:0] $end
$var reg 16 ^" alu_a_r[15:0] $end
$var reg 16 _" alu_b_r[15:0] $end
$var reg 3 `" alu_op_r[2:0] $end
$var reg 16 a" alu_y[15:0] $end
$var reg 1 b" alu_z $end
$var reg 1 c" alu_s $end
$var reg 1 d" alu_c $end
$var reg 1 e" alu_o $end
$var reg 1 f" flag_we $end
$var reg 1 g" flag_z $end
$var reg 1 h" flag_s $end
$var reg 1 i" flag_c $end
$var reg 1 j" flag_o $end
$var reg 1 k" stack_push $end
$var reg 1 l" stack_pop $end
$var reg 16 m" stack_dout[15:0] $end
$var reg 3 n" stack_sp[2:0] $end
$var reg 1 o" stack_empty $end
$var reg 1 p" stack_full $end
$var reg 16 q" r1_dbg[15:0] $end
$var reg 16 r" r2_dbg[15:0] $end
$var reg 16 s" r3_dbg[15:0] $end
$var reg 16 t" r4_dbg[15:0] $end
$var reg 16 u" r5_dbg[15:0] $end
$var reg 16 v" r6_dbg[15:0] $end
$var reg 16 w" r7_dbg[15:0] $end
$scope module u_rf $end
$var reg 1 x" clk_i $end
$var reg 1 y" rst_i $end
$var reg 1 z" we_i $end
$var reg 4 {" wr_addr_i[3:0] $end
$var reg 4 |" rd_addr_a_i[3:0] $end
$var reg 4 }" rd_addr_b_i[3:0] $end
$var reg 16 !# din_i[15:0] $end
$var reg 16 "# dout_a_o[15:0] $end
$var reg 16 ## dout_b_o[15:0] $end
$var reg 16 $# r0_o[15:0] $end
$var reg 16 %# r1_o[15:0] $end
$var reg 16 &# r2_o[15:0] $end
$var reg 16 '# r3_o[15:0] $end
$var reg 16 (# r4_o[15:0] $end
$var reg 16 )# r5_o[15:0] $end
$var reg 16 *# r6_o[15:0] $end
$var reg 16 +# r7_o[15:0] $end
$var reg 16 ,# r8_o[15:0] $end
$var reg 16 -# r9_o[15:0] $end
$var reg 16 .# r10_o[15:0] $end
$var reg 16 /# r11_o[15:0] $end
$comment regs is not handled $end
$upscope $end
$scope module u_alu $end
$var reg 16 0# a_i[15:0] $end
$var reg 16 1# b_i[15:0] $end
$var reg 1 2# flag_s_i $end
$var reg 3 3# op_i[2:0] $end
$var reg 16 4# y_o[15:0] $end
$var reg 1 5# z_o $end
$var reg 1 6# s_o $end
$var reg 1 7# c_o $end
$var reg 1 8# o_o $end
$upscope $end
$scope module u_flags $end
$var reg 1 9# clk_i $end
$var reg 1 :# rst_i $end
$var reg 1 ;# we_i $end
$var reg 1 <# z_i $end
$var reg 1 =# s_i $end
$var reg 1 ># c_i $end
$var reg 1 ?# o_i $end
$var reg 1 @# z_o $end
$var reg 1 A# s_o $end
$var reg 1 B# c_o $end
$var reg 1 C# o_o $end
$var reg 1 D# z_r $end
$var reg 1 E# s_r $end
$var reg 1 F# c_r $end
$var reg 1 G# o_r $end
$upscope $end
$scope module u_stack $end
$var reg 1 H# clk_i $end
$var reg 1 I# rst_i $end
$var reg 1 J# push_i $end
$var reg 1 K# pop_i $end
$var reg 16 L# din_i[15:0] $end
$var reg 16 M# dout_o[15:0] $end
$var reg 3 N# sp_o[2:0] $end
$var reg 1 O# empty_o $end
$var reg 1 P# full_o $end
$comment mem is not handled $end
$var reg 3 Q# sp_r[2:0] $end
$var reg 16 R# dout_r[15:0] $end
$upscope $end
$upscope $end
$scope module u_rom $end
$var reg 1 S# clk_i $end
$var reg 1 T# en_i $end
$var reg 16 U# addr_i[15:0] $end
$var reg 16 V# data_o[15:0] $end
$var reg 16 W# q_r[15:0] $end
$upscope $end
$scope module u_cache $end
$var reg 1 X# clk_i $end
$var reg 1 Y# rst_i $end
$var reg 1 Z# cpu_req_i $end
$var reg 1 [# cpu_we_i $end
$var reg 16 \# cpu_addr_i[15:0] $end
$var reg 16 ]# cpu_wdata_i[15:0] $end
$var reg 16 ^# cpu_rdata_o[15:0] $end
$var reg 1 _# cpu_ready_o $end
$var reg 1 `# hit_o $end
$var reg 1 a# miss_o $end
$var reg 1 b# ram_req_o $end
$var reg 1 c# ram_we_o $end
$var reg 16 d# ram_addr_o[15:0] $end
$var reg 16 e# ram_wdata_o[15:0] $end
$var reg 16 f# ram_rdata_i[15:0] $end
$var reg 1 g# ram_grant_i $end
$comment state_r is not handled $end
$comment data_r is not handled $end
$comment tag_r is not handled $end
$comment age_r is not handled $end
$comment valid_r is not handled $end
$var reg 16 h# req_addr_r[15:0] $end
$var reg 16 i# req_wdata_r[15:0] $end
$var reg 1 j# req_we_r $end
$var reg 1 k# write_hit_r $end
$var integer 32 l# victim_r $end
$var integer 32 m# set_r $end
$var reg 12 n# tag_req_r[11:0] $end
$var reg 16 o# cpu_rdata_r[15:0] $end
$var reg 1 p# cpu_ready_r $end
$var reg 1 q# hit_r $end
$var reg 1 r# miss_r $end
$var reg 1 s# ram_req_r $end
$var reg 1 t# ram_we_r $end
$var reg 16 u# ram_addr_r[15:0] $end
$var reg 16 v# ram_wdata_r[15:0] $end
$upscope $end
$scope module u_ram $end
$var reg 1 w# clk_i $end
$var reg 1 x# en_i $end
$var reg 1 y# we_i $end
$var reg 16 z# addr_i[15:0] $end
$var reg 16 {# din_i[15:0] $end
$var reg 16 |# dout_o[15:0] $end
$comment mem is not handled $end
$var reg 16 }# q_r[15:0] $end
$upscope $end
$scope module u_arb $end
$var reg 1 !$ req_cpu_i $end
$var reg 1 "$ req_dma_i $end
$var reg 1 #$ grant_cpu_o $end
$var reg 1 $$ grant_dma_o $end
$upscope $end
$scope module u_dma $end
$var reg 1 %$ clk_i $end
$var reg 1 &$ rst_i $end
$var reg 1 '$ start_i $end
$var reg 1 ($ grant_i $end
$var reg 1 )$ dev_valid_i $end
$var reg 16 *$ dev_data_i[15:0] $end
$var reg 1 +$ req_o $end
$var reg 1 ,$ busy_o $end
$var reg 1 -$ done_o $end
$var reg 1 .$ ram_we_o $end
$var reg 16 /$ ram_addr_o[15:0] $end
$var reg 16 0$ ram_data_o[15:0] $end
$comment state_r is not handled $end
$var reg 2 1$ index_r[1:0] $end
$var reg 1 2$ done_r $end
$upscope $end
$scope module u_bp $end
$var reg 1 3$ clk_i $end
$var reg 1 4$ rst_i $end
$var reg 1 5$ query_valid_i $end
$var reg 16 6$ pc_query_i[15:0] $end
$var reg 2 7$ hist_o[1:0] $end
$var reg 1 8$ pred_taken_o $end
$var reg 16 9$ pred_target_o[15:0] $end
$var reg 1 :$ update_valid_i $end
$var reg 16 ;$ pc_update_i[15:0] $end
$var reg 2 <$ hist_i[1:0] $end
$var reg 1 =$ actual_taken_i $end
$var reg 16 >$ actual_tgt_i[15:0] $end
$comment pht is not handled $end
$comment btb_tgt is not handled $end
$var reg 16 ?$ btb_valid[0:15] $end
$var reg 2 @$ ghr_r[1:0] $end
$upscope $end
$upscope $end
$upscope $end
$enddefinitions $end
#0
0!
1"
0#
0$
b0000000000000000 %
0&
0'
b00000 (
b0000000000000000 )
b0000000000000000 *
b0000000000000000 +
b0000000000000000 ,
b0000000000000000 -
b0000000000000000 .
b0000000000000000 /
b0000000000000000 0
b0000000000000000 1
b0000000000000000 2
b0000 3
b111 4
05
06
07
08
09
0:
0;
b0000000000000000 <
b0000000000000000 =
b0000000000000000 >
b00 ?
0@
b0000000000000000 A
0B
1C
0D
0E
b0000000000000000 F
0G
0H
b00000 I
b0000000000000000 J
b0000000000000000 K
b0000000000000000 L
b0000000000000000 M
b0000000000000000 N
b0000000000000000 O
b0000000000000000 P
b0000000000000000 Q
b0000000000000000 R
b0000000000000000 S
b0000 T
b111 U
0V
0W
0X
0Y
0Z
0[
0\
b0000000000000000 ]
b0000000000000000 ^
b0000000000000000 _
b00 `
0a
b0000000000000000 b
b0000000000000000 c
0d
b0000000000000000 e
0f
0g
b0000000000000000 h
b0000000000000000 i
b0000000000000000 j
0k
0l
0m
0n
0o
b0000000000000000 p
b0000000000000000 q
0r
0s
0t
0u
0v
b0000000000001010 w
b0000000000000000 x
0y
0z
b0000000000000000 {
b0000000000000000 |
b0000000000000000 }
0!"
b0000000000000000 ""
b00 #"
0$"
b0000000000000000 %"
0&"
b0000000000000000 '"
b00 ("
0)"
b0000000000000000 *"
0+"
1,"
b0000000000000000 -"
0."
b0000000000000000 /"
00"
01"
b0000000000000000 2"
b0000000000000000 3"
b0000000000000000 4"
05"
06"
07"
08"
b0000000000000000 9"
b00 :"
0;"
b0000000000000000 <"
0="
b0000000000000000 >"
b00 ?"
0@"
b0000000000000000 A"
0B"
b00000 C"
b0000000000000000 D"
b0000000000000000 E"
b0000000000000000 F"
b0000000000000000 G"
b0000000000000000 H"
b0000000000000000 I"
b0000000000000000 J"
b0000000000000000 K"
b0000000000000000 L"
b0000000000000000 M"
b0000 N"
b111 O"
b0000000000000000 P"
b0000000000000000 Q"
b0000000000000000 R"
b0000 S"
b00000000 T"
b0000000000000000 U"
0V"
0W"
b0000 X"
b0000 Y"
b0000 Z"
b0000000000000000 ["
b0000000000000000 \"
b0000000000000000 ]"
b0000000000000000 ^"
b0000000000000000 _"
b000 `"
b0000000000000000 a"
1b"
0c"
0d"
0e"
0f"
0g"
0h"
0i"
0j"
0k"
0l"
b0000000000000000 m"
b111 n"
1o"
0p"
b0000000000000000 q"
b0000000000000000 r"
b0000000000000000 s"
b0000000000000000 t"
b0000000000000000 u"
b0000000000000000 v"
b0000000000000000 w"
0x"
1y"
0z"
b0000 {"
b0000 |"
b0000 }"
b0000000000000000 !#
b0000000000000000 "#
b0000000000000000 ##
b0000000000000000 $#
b0000000000000000 %#
b0000000000000000 &#
b0000000000000000 '#
b0000000000000000 (#
b0000000000000000 )#
b0000000000000000 *#
b0000000000000000 +#
b0000000000000000 ,#
b0000000000000000 -#
b0000000000000000 .#
b0000000000000000 /#
b0000000000000000 0#
b0000000000000000 1#
02#
b000 3#
b0000000000000000 4#
15#
06#
07#
08#
09#
1:#
0;#
1<#
0=#
0>#
0?#
0@#
0A#
0B#
0C#
0D#
0E#
0F#
0G#
0H#
1I#
0J#
0K#
b0000000000000000 L#
b0000000000000000 M#
b111 N#
1O#
0P#
b111 Q#
b0000000000000000 R#
0S#
0T#
b0000000000000000 U#
b0000000000000000 V#
b0000000000000000 W#
0X#
1Y#
0Z#
0[#
b0000000000000000 \#
b0000000000000000 ]#
b0000000000000000 ^#
0_#
0`#
0a#
0b#
0c#
b0000000000000000 d#
b0000000000000000 e#
b0000000000000000 f#
0g#
b0000000000000000 h#
b0000000000000000 i#
0j#
0k#
b0 l#
b0 m#
b000000000000 n#
b0000000000000000 o#
0p#
0q#
0r#
0s#
0t#
b0000000000000000 u#
b0000000000000000 v#
0w#
0x#
0y#
b0000000000000000 z#
b0000000000000000 {#
b0000000000000000 |#
b0000000000000000 }#
0!$
0"$
0#$
0$$
0%$
1&$
0'$
0($
0)$
b0000000000000000 *$
0+$
0,$
0-$
0.$
b0000000000001010 /$
b0000000000000000 0$
b00 1$
02$
03$
14$
05$
b0000000000000000 6$
b00 7$
08$
b0000000000000000 9$
0:$
b0000000000000000 ;$
b00 <$
0=$
b0000000000000000 >$
b0000000000000000 ?$
b00 @$
#5000000
1!
1B
1+"
1x"
19#
1H#
1S#
1X#
1w#
1%$
13$
#10000000
0!
0B
0+"
0x"
09#
0H#
0S#
0X#
0w#
0%$
03$
#15000000
1!
1B
1+"
1x"
19#
1H#
1S#
1X#
1w#
1%$
13$
#20000000
0!
0B
0+"
0x"
09#
0H#
0S#
0X#
0w#
0%$
03$
#25000000
1!
1B
1+"
1x"
19#
1H#
1S#
1X#
1w#
1%$
13$
#30000000
0!
0"
0B
0C
0+"
0,"
0x"
0y"
09#
0:#
0H#
0I#
0S#
0X#
0Y#
0w#
0%$
0&$
03$
04$
#35000000
1!
b00001 (
1B
b00001 I
1d
1!"
1+"
1."
18"
b00001 C"
1V"
1x"
19#
1H#
1S#
1T#
1X#
1w#
1%$
13$
15$
#40000000
0!
0B
0+"
0x"
09#
0H#
0S#
0X#
0w#
0%$
03$
#45000000
1!
1#
1$
b0001000100010001 %
b00010 (
1B
1D
1E
b0001000100010001 F
b00010 I
b0000000100010000 e
b0001000100010001 x
0!"
1+"
b0000000100010000 /"
08"
b00010 C"
1x"
19#
1H#
1S#
b0000000100010000 V#
b0000000100010000 W#
1X#
1w#
1%$
1'$
1)$
b0001000100010001 *$
b0001000100010001 0$
13$
05$
#50000000
0!
0B
0+"
0x"
09#
0H#
0S#
0X#
0w#
0%$
03$
#55000000
1!
0#
b00011 (
18
1:
b0000000000001010 <
b0001000100010001 =
1B
0D
b00011 I
1Y
1[
b0000000000001010 ]
b0001000100010001 ^
1r
1s
b0000000000001010 {
b0001000100010001 |
1+"
b00011 C"
1x"
19#
1H#
1S#
1X#
1w#
b0000000000001010 z#
b0001000100010001 {#
1"$
1$$
1%$
0'$
1($
1+$
1,$
13$
#60000000
0!
0B
0+"
0x"
09#
0H#
0S#
0X#
0w#
0%$
03$
#65000000
1!
b00100 (
b0000000100010000 *
1;
1B
b00100 I
b0000000100010000 K
1\
b0000000000000001 c
1v
1y
1z
1+"
b0000000000000001 -"
b00100 C"
b0000000100010000 E"
b0000000100010000 Q"
b0000000000000001 U"
1x"
19#
1H#
1S#
b0000000000000001 U#
1X#
1w#
1x#
1y#
1%$
1.$
13$
#70000000
0!
0B
0+"
0x"
09#
0H#
0S#
0X#
0w#
0%$
03$
#75000000
1!
b0010001000100010 %
b00101 (
b0000000000001011 <
b0010001000100010 =
1B
b0010001000100010 F
b00101 I
b0000000000001011 ]
b0010001000100010 ^
b0000000000100000 e
b0000000000001011 w
b0010001000100010 x
b0000000000001011 {
b0010001000100010 |
1+"
b0000000000100000 /"
b00101 C"
1x"
19#
1H#
1S#
b0000000000100000 V#
b0000000000100000 W#
1X#
1w#
b0000000000001011 z#
b0010001000100010 {#
1%$
b0010001000100010 *$
b0000000000001011 /$
b0010001000100010 0$
b01 1$
13$
#80000000
0!
0B
0+"
0x"
09#
0H#
0S#
0X#
0w#
0%$
03$
#85000000
1!
b0011001100110011 %
b00110 (
b0000000000001100 <
b0011001100110011 =
1B
b0011001100110011 F
b00110 I
b0000000000001100 ]
b0011001100110011 ^
b0000000000001100 w
b0011001100110011 x
b0000000000001100 {
b0011001100110011 |
1+"
b00110 C"
1x"
19#
1H#
1S#
1X#
1w#
b0000000000001100 z#
b0011001100110011 {#
1%$
b0011001100110011 *$
b0000000000001100 /$
b0011001100110011 0$
b10 1$
13$
#90000000
0!
0B
0+"
0x"
09#
0H#
0S#
0X#
0w#
0%$
03$
#95000000
1!
0$
b00111 (
b0000000000100000 +
08
0:
0;
b0000000000000000 <
b0000000000000000 =
1B
0E
b00111 I
b0000000000100000 L
0Y
0[
0\
b0000000000000000 ]
b0000000000000000 ^
b0000000000100000 h
0r
0s
0v
0y
0z
b0000000000000000 {
b0000000000000000 |
b0000000000100000 *"
1+"
b0000000000100000 2"
b0000000000100000 A"
b00111 C"
b0000000000100000 F"
b0000000000100000 R"
1x"
19#
1H#
1S#
1X#
b0000000000100000 \#
1w#
0x#
0y#
b0000000000000000 z#
b0000000000000000 {#
0"$
0$$
1%$
0($
0)$
0+$
0.$
13$
b0000000000100000 >$
#100000000
0!
0B
0+"
0x"
09#
0H#
0S#
0X#
0w#
0%$
03$
#105000000
1!
1'
b01000 (
1B
1H
b01000 I
1f
1u
1+"
10"
b01000 C"
b0001 S"
b00000001 T"
b0001 X"
b0001 Y"
1x"
b0001 {"
b0001 |"
19#
1H#
1S#
1X#
1Z#
1w#
1%$
0,$
1-$
12$
13$
#110000000
0!
0B
0+"
0x"
09#
0H#
0S#
0X#
0w#
0%$
03$
#115000000
1!
16
17
19
b0000000000100000 <
1B
1W
1X
1Z
b0000000000100000 ]
1m
1n
b0000000000100000 p
1t
1y
b0000000000100000 {
1+"
17"
1x"
19#
1H#
1S#
1X#
1a#
1b#
b0000000000100000 d#
1g#
b0000000000100000 h#
b11 l#
b000000000010 n#
1r#
1s#
b0000000000100000 u#
1w#
1x#
b0000000000100000 z#
1!$
1#$
1%$
13$
#120000000
0!
0B
0+"
0x"
09#
0H#
0S#
0X#
0w#
0%$
03$
#125000000
1!
06
b1000000000000001 >
1B
0W
b1000000000000001 _
0m
b1000000000000001 }
1+"
07"
1x"
19#
1H#
1S#
1X#
0a#
b1000000000000001 f#
0r#
1w#
b1000000000000001 |#
b1000000000000001 }#
1%$
13$
#130000000
0!
0B
0+"
0x"
09#
0H#
0S#
0X#
0w#
0%$
03$
#135000000
1!
16
07
09
1B
1W
0X
0Z
b1000000000000001 j
1k
1m
0n
0t
0y
1+"
b1000000000000001 4"
15"
17"
1x"
19#
1H#
1S#
1X#
b1000000000000001 ^#
1_#
1a#
0b#
0g#
b1000000000000001 o#
1p#
1r#
0s#
1w#
0x#
0!$
0#$
1%$
13$
#140000000
0!
0B
0+"
0x"
09#
0H#
0S#
0X#
0w#
0%$
03$
#145000000
1!
b01100 (
06
1B
b01100 I
0W
0f
0k
0m
1+"
00"
05"
07"
b01100 C"
1W"
b1000000000000001 ["
1x"
1z"
b1000000000000001 !#
19#
1H#
1S#
1X#
0Z#
0_#
0a#
0p#
0r#
1w#
1%$
13$
#150000000
0!
0B
0+"
0x"
09#
0H#
0S#
0X#
0w#
0%$
03$
#155000000
1!
b10010 (
b1000000000000001 ,
1B
b10010 I
b1000000000000001 M
b1000000000000001 i
1+"
b1000000000000001 3"
b10010 C"
b1000000000000001 G"
0W"
b0000000000000000 ["
b1000000000000001 \"
b1000000000000001 q"
1x"
0z"
b0000000000000000 !#
b1000000000000001 "#
b1000000000000001 %#
19#
1H#
b1000000000000001 L#
1S#
1X#
b1000000000000001 ]#
1w#
1%$
13$
#160000000
0!
0B
0+"
0x"
09#
0H#
0S#
0X#
0w#
0%$
03$
#165000000
1!
b00001 (
b0000000000000010 )
1B
b00001 I
b0000000000000010 J
1!"
b0000000000000010 ""
b0000000000000010 '"
1+"
18"
b0000000000000010 9"
b0000000000000010 >"
b00001 C"
b0000000000000010 D"
b0000000000000010 P"
1x"
19#
1H#
1S#
1X#
1w#
1%$
13$
15$
b0000000000000010 6$
b0000000000000010 ;$
#170000000
0!
0B
0+"
0x"
09#
0H#
0S#
0X#
0w#
0%$
03$
#175000000
1!
b00010 (
1B
b00010 I
b0000000000000010 c
0!"
1+"
b0000000000000010 -"
08"
b00010 C"
b0000000000000010 U"
1x"
19#
1H#
1S#
b0000000000000010 U#
1X#
1w#
1%$
13$
05$
#180000000
0!
0B
0+"
0x"
09#
0H#
0S#
0X#
0w#
0%$
03$
#185000000
1!
b00011 (
1B
b00011 I
b0000010100010000 e
1+"
b0000010100010000 /"
b00011 C"
1x"
19#
1H#
1S#
b0000010100010000 V#
b0000010100010000 W#
1X#
1w#
1%$
13$
#190000000
0!
0B
0+"
0x"
09#
0H#
0S#
0X#
0w#
0%$
03$
#195000000
1!
b00100 (
b0000010100010000 *
1B
b00100 I
b0000010100010000 K
b0000000000000011 c
1+"
b0000000000000011 -"
b00100 C"
b0000010100010000 E"
b0000010100010000 Q"
b0000000000000011 U"
1x"
19#
1H#
1S#
b0000000000000011 U#
1X#
1w#
1%$
13$
#200000000
0!
0B
0+"
0x"
09#
0H#
0S#
0X#
0w#
0%$
03$
#205000000
1!
b00101 (
1B
b00101 I
b0000000000000000 e
1+"
b0000000000000000 /"
b00101 C"
1x"
19#
1H#
1S#
b0000000000000000 V#
b0000000000000000 W#
1X#
1w#
1%$
13$
#210000000
0!
0B
0+"
0x"
09#
0H#
0S#
0X#
0w#
0%$
03$
#215000000
1!
b00110 (
1B
b00110 I
1+"
b00110 C"
1x"
19#
1H#
1S#
1X#
1w#
1%$
13$
#220000000
0!
0B
0+"
0x"
09#
0H#
0S#
0X#
0w#
0%$
03$
#225000000
1!
b00111 (
b0000000000000000 +
1B
b00111 I
b0000000000000000 L
b0000000000000000 h
b0000000000000000 *"
1+"
b0000000000000000 2"
b0000000000000000 A"
b00111 C"
b0000000000000000 F"
b0000000000000000 R"
1x"
19#
1H#
1S#
1X#
b0000000000000000 \#
1w#
1%$
13$
b0000000000000000 >$
#230000000
0!
0B
0+"
0x"
09#
0H#
0S#
0X#
0w#
0%$
03$
#235000000
1!
b01010 (
1B
b01010 I
1+"
b01010 C"
b00000101 T"
1x"
19#
1H#
1S#
1X#
1w#
1%$
13$
#240000000
0!
0B
0+"
0x"
09#
0H#
0S#
0X#
0w#
0%$
03$
#245000000
1!
b01011 (
1B
b01011 I
1+"
b01011 C"
1W"
b1100000000000000 ["
b1000000000000001 ^"
b011 `"
b1100000000000000 a"
0b"
1c"
1d"
1f"
1x"
1z"
b1100000000000000 !#
b1000000000000001 0#
b011 3#
b1100000000000000 4#
05#
16#
17#
19#
1;#
0<#
1=#
1>#
1H#
1S#
1X#
1w#
1%$
13$
#250000000
0!
0B
0+"
0x"
09#
0H#
0S#
0X#
0w#
0%$
03$
#255000000
1!
b10010 (
b1100000000000000 ,
b0110 3
1B
b10010 I
b1100000000000000 M
b0110 T
b1100000000000000 i
1+"
b1100000000000000 3"
b10010 C"
b1100000000000000 G"
b0110 N"
0W"
b0000000000000000 ["
b1100000000000000 \"
0f"
1h"
1i"
b1100000000000000 q"
1x"
0z"
b0000000000000000 !#
b1100000000000000 "#
b1100000000000000 %#
12#
19#
0;#
1A#
1B#
1E#
1F#
1H#
b1100000000000000 L#
1S#
1X#
b1100000000000000 ]#
1w#
1%$
13$
#260000000
0!
0B
0+"
0x"
09#
0H#
0S#
0X#
0w#
0%$
03$
#265000000
1!
b00001 (
b0000000000000100 )
1B
b00001 I
b0000000000000100 J
1!"
b0000000000000100 ""
b0000000000000100 '"
1+"
18"
b0000000000000100 9"
b0000000000000100 >"
b00001 C"
b0000000000000100 D"
b0000000000000100 P"
1x"
19#
1H#
1S#
1X#
1w#
1%$
13$
15$
b0000000000000100 6$
b0000000000000100 ;$
#270000000
0!
0B
0+"
0x"
09#
0H#
0S#
0X#
0w#
0%$
03$
#275000000
1!
b00010 (
1B
b00010 I
b0000000000000100 c
0!"
1+"
b0000000000000100 -"
08"
b00010 C"
b0000000000000100 U"
1x"
19#
1H#
1S#
b0000000000000100 U#
1X#
1w#
1%$
13$
05$
#280000000
0!
0B
0+"
0x"
09#
0H#
0S#
0X#
0w#
0%$
03$
#285000000
1!
b00011 (
1B
b00011 I
b0000011000010000 e
1+"
b0000011000010000 /"
b00011 C"
1x"
19#
1H#
1S#
b0000011000010000 V#
b0000011000010000 W#
1X#
1w#
1%$
13$
#290000000
0!
0B
0+"
0x"
09#
0H#
0S#
0X#
0w#
0%$
03$
#295000000
1!
b00100 (
b0000011000010000 *
1B
b00100 I
b0000011000010000 K
b0000000000000101 c
1+"
b0000000000000101 -"
b00100 C"
b0000011000010000 E"
b0000011000010000 Q"
b0000000000000101 U"
1x"
19#
1H#
1S#
b0000000000000101 U#
1X#
1w#
1%$
13$
